module gitlab.com/pulsechaincom/pulsechain-explorer-server

go 1.21

require (
	github.com/go-easygen/go-flags v1.5.2
	github.com/sirupsen/logrus v1.9.3
)

require golang.org/x/sys v0.0.0-20220715151400-c0bba94af5f8 // indirect
